{
    "DOSSIERS": {
        "absolu": [
            "/data/data/com.termux/files/home/storage/downloads/tmpfs",
            "/mnt/tmpfs",
            "/storage/emulated/0/Download/hugo/",
            "/storage/emulated/0/Download/AfficheInfos/data/"
        ],
        "relatif": [
            "temp"
        ]
    },
    "MODES": {
        "WEB": {
            "DONNEES": [
                "stm"
            ],
            "port": "8081",
            "eteindre_ecran": 0,
            "rsrc_folder": "web"
        },
        "STATIQUE": {
            "eteindre_ecran": 1,
            "temps_entre_rafraichissement": 60,
            "rsrc_folder": "web"
        },
        "OLED": {
            "DONNEES": [
                "stm"
            ],
            "eteindre_ecran": 0,
            "temps_entre_rafraichissement": 5,
            "rsrc_folder": ""
        }
    },
    "DONNEES": {
        "display_options": {
            "time_display": "false",
            "full_screen_button": "false"
        },
        "domoticz": {},
        "extra": {},
        "stm": {
            "cle": "----",
            "temps_decalage": 2,
            "CONF": [
                {
                    "TITRE": "SNOWDON",
                    "ARRET": "51176",
                    "NUMBER_DB_PER_BUS": 10,
                    "BUS": {
                        "51": {
                            "REAL_TIME": {
                                "DIR": "West",
                                "NUMBER": 4
                            }
                        },
                        "166": {
                            "REAL_TIME": {
                                "DIR": "North",
                                "NUMBER": 2
                            }
                        },
                        "711": {
                            "REAL_TIME": {
                                "DIR": "West",
                                "NUMBER": 2
                            }
                        }
                    }
                },
                {
                    "TITRE": "Oratoire",
                    "ARRET": "51175",
                    "NUMBER_DB_PER_BUS": 10,
                    "BUS": {
                        "51": {
                            "REAL_TIME": {
                                "DIR": "East",
                                "NUMBER": 4
                            }
                        },
                        "166": {
                            "REAL_TIME": {
                                "DIR": "South",
                                "NUMBER": 2
                            }
                        },
                        "711": {
                            "REAL_TIME": {
                                "DIR": "East",
                                "NUMBER": 2
                            }
                        }
                    }
                }
            ],
            "DB_PATHS": {
                "relatif": [
                    "../../../db"
                ],
                "absolu": [
                    "/storage/3EFF-03F6/download/AfficheInfos/db/",
                    "/storage/emulated/0/Download/AfficheInfos/db"
                ],
                "utilisateur_relatif": [
                    ".stmcli"
                ]
            }
        }
    }
}